<?xml version="1.0" encoding="UTF-8"?>
<svg width="1441px" height="1371px" viewBox="0 0 1441 1371" version="1.1" xmlns="http://www.w3.org/2000/svg" xmlns:xlink="http://www.w3.org/1999/xlink">
    <!-- Generator: Sketch 55.1 (78136) - https://sketchapp.com -->
    <title>Artboard</title>
    <desc>Created with Sketch.</desc>
    <g id="Artboard" stroke="none" stroke-width="1" fill="none" fill-rule="evenodd">
        <g id="Group" transform="translate(197.000000, 170.000000)">
            <g id="Group-2" transform="translate(312.000000, 0.000000)">
                <path d="M293.472469,67.8447116 L441.799392,173.220346 C454.471962,182.223298 462,196.805813 462,212.350818 L462,441.74442 C462,457.289425 454.471962,471.87194 441.799392,480.874892 L293.472469,586.250527 C276.826118,598.076565 254.520036,598.076565 237.873684,586.250527 L89.5467621,480.874892 C76.8741919,471.87194 69.3461538,457.289425 69.3461538,441.74442 L69.3461538,212.350818 C69.3461538,196.805813 76.8741919,182.223298 89.5467621,173.220346 L237.873684,67.8447116 C254.520036,56.0186734 276.826118,56.0186734 293.472469,67.8447116 Z" id="Polygon" fill="#DCDAF0"></path>
                <path d="M226.434008,19.7494735 L374.76093,125.125108 C387.4335,134.12806 394.961538,148.710575 394.961538,164.25558 L394.961538,393.649182 C394.961538,409.194187 387.4335,423.776702 374.76093,432.779654 L226.434008,538.155288 C209.787656,549.981327 187.481574,549.981327 170.835223,538.155288 L22.5083006,432.779654 C9.83573032,423.776702 2.30769231,409.194187 2.30769231,393.649182 L2.30769231,164.25558 C2.30769231,148.710575 9.83573032,134.12806 22.5083006,125.125108 L170.835223,19.7494735 C187.481574,7.92343533 209.787656,7.92343533 226.434008,19.7494735 Z" id="Polygon" fill="#7358FF" style="mix-blend-mode: multiply;"></path>
                <path d="M104.507645,231.2218 L63.7153257,244.939155 C56.177216,247.474018 48.0114585,243.418085 45.4765958,235.879975 C44.4752021,232.902056 44.4752021,229.678344 45.4765958,226.700425 L59.1939511,185.908106 C59.8578752,183.933745 59.8616214,181.797007 59.2046242,179.820331 L45.6130303,138.927942 C43.1046148,131.38099 47.1891554,123.229504 54.736107,120.721089 C57.6847294,119.741041 60.8712605,119.741041 63.8198829,120.721089 L104.712272,134.312683 C106.688949,134.96968 108.825687,134.965934 110.800047,134.30201 L151.592367,120.584654 C159.130476,118.049792 167.296234,122.105725 169.831097,129.643834 C170.83249,132.621753 170.83249,135.845466 169.831097,138.823384 L156.113741,179.615703 C155.449817,181.590064 155.446071,183.726802 156.103068,185.703479 L169.694662,226.595868 C172.203078,234.14282 168.118537,242.294305 160.571585,244.802721 C157.622963,245.782768 154.436432,245.782768 151.487809,244.802721 L110.59542,231.211127 C108.618744,230.55413 106.482005,230.557876 104.507645,231.2218 Z" id="Star" fill="#FFFFFF" transform="translate(107.653846, 182.761905) rotate(-45.000000) translate(-107.653846, -182.761905) "></path>
            </g>
            <text id="Gemslab" font-family="Avenir-Heavy, Avenir" font-size="276" font-weight="600" letter-spacing="-12" fill="#7358FF">
                <tspan x="0" y="930">Gemslab</tspan>
            </text>
        </g>
    </g>
</svg>