<?xml version="1.0" encoding="UTF-8"?>
<svg width="1441px" height="1371px" viewBox="0 0 1441 1371" version="1.1" xmlns="http://www.w3.org/2000/svg" xmlns:xlink="http://www.w3.org/1999/xlink">
    <!-- Generator: Sketch 55.1 (78136) - https://sketchapp.com -->
    <title>dark</title>
    <desc>Created with Sketch.</desc>
    <defs>
        <path d="M242.981886,21.3570843 L403.960665,135.687946 C417.674736,145.427998 425.821876,161.207134 425.821876,178.028084 L425.821876,426.829059 C425.821876,443.650008 417.674736,459.429145 403.960665,469.169196 L242.981886,583.500059 C224.974361,596.28942 200.847516,596.28942 182.839991,583.500059 L21.8612114,469.169196 C8.14714038,459.429145 -5.04545516e-15,443.650008 5.68434189e-14,426.829059 L5.68434189e-14,178.028084 C5.47834467e-14,161.207134 8.14714038,145.427998 21.8612114,135.687946 L182.839991,21.3570843 C200.847516,8.56772242 224.974361,8.56772242 242.981886,21.3570843 Z" id="path-1"></path>
    </defs>
    <g id="dark" stroke="none" stroke-width="1" fill="none" fill-rule="evenodd">
        <rect fill="#302F34" x="0" y="0" width="1441" height="1371"></rect>
        <g id="Group" transform="translate(197.000000, 160.000000)">
            <g id="Group-2" transform="translate(319.000000, 0.000000)">
                <path d="M316.160009,73.4999415 L477.138789,187.830804 C490.85286,197.570855 499,213.349992 499,230.170941 L499,478.971916 C499,495.792866 490.85286,511.572002 477.138789,521.312054 L316.160009,635.642916 C298.152484,648.432278 274.025639,648.432278 256.018114,635.642916 L95.0393349,521.312054 C81.3252639,511.572002 73.1781235,495.792866 73.1781235,478.971916 L73.1781235,230.170941 C73.1781235,213.349992 81.3252639,197.570855 95.0393349,187.830804 L256.018114,73.4999415 C274.025639,60.7105796 298.152484,60.7105796 316.160009,73.4999415 Z" id="Polygon" fill-opacity="0.241176792" fill="#15151D"></path>
                <g id="Polygon" transform="translate(0.476828, 0.000000)">
                    <mask id="mask-2" fill="white">
                        <use xlink:href="#path-1"></use>
                    </mask>
                    <use id="Mask" fill="#7359FF" xlink:href="#path-1"></use>
                    <path d="M315.340462,73.2662824 L476.319241,187.597145 C490.033312,197.337196 498.180453,213.116333 498.180453,229.937282 L498.180453,478.738257 C498.180453,495.559207 490.033312,511.338343 476.319241,521.078395 L315.340462,635.409257 C297.332937,648.198619 273.206092,648.198619 255.198567,635.409257 L94.2197876,521.078395 C80.5057166,511.338343 72.3585762,495.559207 72.3585762,478.738257 L72.3585762,229.937282 C72.3585762,213.116333 80.5057166,197.337196 94.2197876,187.597145 L255.198567,73.2662824 C273.206092,60.4769205 297.332937,60.4769205 315.340462,73.2662824 Z" fill="#634BF0" mask="url(#mask-2)"></path>
                </g>
                <path d="M111.324828,250.685801 L67.0164618,265.579835 C58.8605151,268.321416 50.0263238,263.932205 47.2847433,255.776258 C46.2020769,252.555426 46.2020769,249.068948 47.2847433,245.848117 L62.1787777,201.539751 C62.8968455,199.403566 62.9006319,197.091784 62.1895657,194.953258 L47.4233454,150.54398 C44.7084967,142.379096 49.1266231,133.55933 57.2915069,130.844481 C60.482727,129.783391 63.9316236,129.783391 67.1228437,130.844481 L111.532122,145.610702 C113.670648,146.321768 115.98243,146.317981 118.118615,145.599914 L162.426981,130.705879 C170.582927,127.964299 179.417119,132.35351 182.158699,140.509456 C183.241366,143.730288 183.241366,147.216766 182.158699,150.437598 L167.264665,194.745963 C166.546597,196.882148 166.542811,199.193931 167.253877,201.332456 L182.020097,245.741735 C184.734946,253.906618 180.316819,262.726384 172.151936,265.441233 C168.960715,266.502323 165.511819,266.502323 162.320599,265.441233 L117.91132,250.675013 C115.772795,249.963946 113.461012,249.967733 111.324828,250.685801 Z" id="Star" fill="#FFFFFF" transform="translate(114.721721, 198.142857) rotate(-45.000000) translate(-114.721721, -198.142857) "></path>
            </g>
            <text id="Gemslab" font-family="Avenir-Heavy, Avenir" font-size="276" font-weight="600" letter-spacing="-12" fill="#FFFFFF">
                <tspan x="0" y="940">Gemslab</tspan>
            </text>
        </g>
    </g>
</svg>